{
  "$schema": "http://json-schema.org/draft-07/schema#",
  "type": "object",
  "title": "The CA Rule Format",
  "required": [
    "author_id",
    "description",
    "dimension",
    "rule",
    "range",
    "stateNumber",
    "tags",
    "title"
  ],
  "properties": {
    "author_id": {
      "$id": "#/properties/author_id",
      "type": "string",
      "title": "The Author_id Schema",
      "default": "",
      "examples": [
        "vJ3msqGmjJSS0OuJPun7uEKygKg2"
      ]
    },
    "description": {
      "$id": "#/properties/description",
      "type": "string",
      "title": "The Description Schema",
      "default": "",
      "examples": [
        "# Cyclic Cellular Automaton\n・セルは0から15の状態を持つ\n・周囲に(自分の状態+1)の状態を持つセルがあれば、(自分の状態+1)の状態に変化する\n・興奮状態(15)であれば、0に戻る"
      ]
    },
    "dimension": {
      "$id": "#/properties/dimension",
      "type": "integer",
      "title": "The Dimension Schema",
      "default": 0,
      "examples": [
        1
      ]
    },
    "rule": {
      "$id": "#/properties/rule",
      "type": "object",
      "title": "The Program Schema",
      "required": [
        "body",
        "language"
      ],
      "properties": {
        "body": {
          "$id": "#/properties/rule/properties/body",
          "type": "string",
          "title": "The Body Schema",
          "default": "",
          "examples": [
            "let next = (currentState+1)%stateNumber\nlet changing = neighbors.some(function(state) {\n\treturn state === next\n})\nif (changing) {\n   nextState = next\n} else {\n  nextState = currentState\n}\n"
          ]
        },
        "language": {
          "$id": "#/properties/program/properties/language",
          "type": "string",
          "title": "The Language Schema",
          "default": "",
          "examples": [
            "javascript"
          ]
        }
      }
    },
    "range": {
      "$id": "#/properties/range",
      "type": "integer",
      "title": "The Range Schema",
      "default": 0,
      "examples": [
        1
      ]
    },
    "stateNumber": {
      "$id": "#/properties/stateNumber",
      "type": "integer",
      "title": "The Statenumber Schema",
      "default": 0,
      "examples": [
        16
      ]
    },
    "tags": {
      "$id": "#/properties/tags",
      "type": "object",
      "title": "The Tags Schema",
      "default": {},
      "examples": {
        "cyclic": true
      }
    },
    "title": {
      "$id": "#/properties/title",
      "type": "string",
      "title": "The Title Schema",
      "default": "",
      "examples": [
        "simple cyclic"
      ]
    }
  }
}
